{
    "name": "UnResize V3",
    "author": "twittman",
    "license": "CC-BY-NC-SA-4.0",
    "tags": [
        "deblur"
    ],
    "description": "Purpose: Deblur / Unresize\n\nPurpose: Fix images that have been arbitrarily / poorly resized, such as non-integer nearest-neighbor upscaling/downscaling - Also acts as an image sharpener/deblur when used on slightly soft inputs\n\nPretrained model: 1x_UnResize_MKII_030000_G.pth",
    "date": "2021-06-28",
    "architecture": "esrgan",
    "size": [
        "64nf",
        "23nb"
    ],
    "scale": 1,
    "inputChannels": 3,
    "outputChannels": 3,
    "resources": [
        {
            "platform": "pytorch",
            "type": "pth",
            "size": 66665765,
            "sha256": "41c1fd640c265375b4649f6c41772714081ea77faf07593456c8021638d3e1d3",
            "urls": [
                "https://objectstorage.us-phoenix-1.oraclecloud.com/n/ax6ygfvpvzka/b/open-modeldb-files/o/1x-UnResize-V3.pth",
                "https://owncube.cloud/index.php/s/LfAT8cyiAzCREGs/download/1x_UnResize_V3_200000_G.pth"
            ]
        }
    ],
    "dataset": "Anime, manga, and photos",
    "images": [
        {
            "type": "paired",
            "LR": "https://images2.imgbox.com/a2/db/fnkd4keM_o.png",
            "SR": "https://images2.imgbox.com/50/73/RaW34frI_o.png",
            "thumbnail": "https://thumbs2.imgbox.com/50/73/RaW34frI_t.png"
        },
        {
            "type": "paired",
            "LR": "https://images2.imgbox.com/50/9d/7rMYh4AD_o.png",
            "SR": "https://images2.imgbox.com/93/34/BYuR1cyD_o.png",
            "thumbnail": "https://thumbs2.imgbox.com/93/34/BYuR1cyD_t.png"
        },
        {
            "type": "paired",
            "LR": "https://images2.imgbox.com/b1/bb/zOQHEYSb_o.png",
            "SR": "https://images2.imgbox.com/44/c7/bupHmmI8_o.png",
            "thumbnail": "https://thumbs2.imgbox.com/44/c7/bupHmmI8_t.png"
        }
    ]
}