{
    "subject": {
        "name": "Subject",
        "description": "",
        "order": 0,
        "simple": true,
        "tags": [
            "anime",
            "cartoon",
            "faces",
            "game-textures",
            "manga",
            "photo",
            "pixel-art",
            "text",
            "video-frame"
        ]
    },
    "purpose": {
        "name": "Purpose",
        "description": "",
        "order": 1,
        "simple": true,
        "tags": [
            "anti-aliasing",
            "colorization",
            "dds",
            "debanding",
            "deblur",
            "dedither",
            "dehalo",
            "denoise",
            "general-upscaler",
            "inpainting",
            "jpeg",
            "pretrained",
            "research",
            "restoration",
            "texture-generation"
        ]
    },
    "architecture": {
        "name": "Architecture",
        "description": "",
        "order": 2,
        "simple": false,
        "tags": [
            "arch:esrgan",
            "arch:compact",
            "arch:swinir",
            "arch:esrgan-2c2",
            "arch:esrgan+",
            "arch:omnisr",
            "arch:cain",
            "arch:cain-yuv",
            "arch:sr-res-net",
            "arch:rife",
            "arch:sofvsr",
            "arch:spsr",
            "arch:swift-srgan",
            "arch:hat",
            "arch:srformer",
            "arch:edsr",
            "arch:grl",
            "arch:dat",
            "arch:ludvae",
            "arch:cugan"
        ]
    },
    "platform": {
        "name": "Platform",
        "description": "",
        "order": 3,
        "simple": false,
        "tags": [
            "platform:pytorch",
            "platform:pytorch-compatible",
            "platform:onnx",
            "platform:onnx-compatible",
            "platform:ncnn",
            "platform:ncnn-compatible"
        ]
    },
    "scale": {
        "name": "Scale",
        "description": "",
        "order": 4,
        "simple": false,
        "tags": [
            "scale:1",
            "scale:2",
            "scale:3",
            "scale:4",
            "scale:8",
            "scale:16"
        ]
    },
    "media-type": {
        "name": "Input type",
        "description": "",
        "order": 5,
        "simple": false,
        "tags": [
            "input:audio",
            "input:image",
            "input:video"
        ]
    },
    "color": {
        "name": "Color",
        "description": "",
        "order": 6,
        "simple": false,
        "tags": [
            "color:1",
            "color:3",
            "color:4",
            "color:1-3"
        ]
    },
    "license": {
        "name": "License",
        "description": "",
        "order": 7,
        "simple": false,
        "tags": [
            "license:by",
            "license:commercial",
            "license:modifications",
            "license:sa",
            "license:unknown"
        ]
    },
    "helpers": {
        "name": "Helpers",
        "description": "A collections of helper tags that mark missing data or models that are interesting for maintainers.",
        "order": 8,
        "simple": false,
        "editOnly": true,
        "tags": [
            "helper:needs-description",
            "helper:needs-tags",
            "helper:invalid-date",
            "helper:invalid-scale",
            "helper:invalid-channels"
        ]
    }
}